{
  "development": {
    "MYSQL_SERVER": {
      "host": "localhost",
      "database": "blow"
    },
    "MYSQL_USER": {
      "name": "blow",
      "password": "blow01"
    },
    "port": 8000
  },
  "production": {
    "MYSQL_SERVER": {
      "host": "localhost",
      "database": "blow"
    },
    "MYSQL_USER": {
      "name": "blow",
      "password": "blow01"
    },
    "port": 80
  }
}
